%YAML 1.1
%TAG !u! tag:unity3d.com,2011:
--- !u!1 &2275891752708413851
GameObject:
  m_ObjectHideFlags: 0
  m_CorrespondingSourceObject: {fileID: 0}
  m_PrefabInstance: {fileID: 0}
  m_PrefabAsset: {fileID: 0}
  serializedVersion: 6
  m_Component:
  - component: {fileID: 3750767147960902522}
  m_Layer: 7
  m_Name: AnimationPivot
  m_TagString: Untagged
  m_Icon: {fileID: 0}
  m_NavMeshLayer: 0
  m_StaticEditorFlags: 0
  m_IsActive: 1
--- !u!4 &3750767147960902522
Transform:
  m_ObjectHideFlags: 0
  m_CorrespondingSourceObject: {fileID: 0}
  m_PrefabInstance: {fileID: 0}
  m_PrefabAsset: {fileID: 0}
  m_GameObject: {fileID: 2275891752708413851}
  m_LocalRotation: {x: -0, y: -0, z: -0, w: 1}
  m_LocalPosition: {x: 0, y: -0.076300025, z: 0.25060028}
  m_LocalScale: {x: 0.07, y: 0.07, z: 0.07}
  m_Children:
  - {fileID: 3927684189051910324}
  - {fileID: 6684516434169637303}
  - {fileID: 6409653650462714857}
  m_Father: {fileID: 3468274686564861291}
  m_RootOrder: 0
  m_LocalEulerAnglesHint: {x: 0, y: 0, z: 0}
--- !u!1 &2795740511317013203
GameObject:
  m_ObjectHideFlags: 0
  m_CorrespondingSourceObject: {fileID: 0}
  m_PrefabInstance: {fileID: 0}
  m_PrefabAsset: {fileID: 0}
  serializedVersion: 6
  m_Component:
  - component: {fileID: 2795740511317013205}
  - component: {fileID: 2795740511317013202}
  - component: {fileID: 2795740511317013213}
  - component: {fileID: 3500493522738626038}
  m_Layer: 7
  m_Name: Boat
  m_TagString: Untagged
  m_Icon: {fileID: 0}
  m_NavMeshLayer: 0
  m_StaticEditorFlags: 0
  m_IsActive: 1
--- !u!4 &2795740511317013205
Transform:
  m_ObjectHideFlags: 0
  m_CorrespondingSourceObject: {fileID: 0}
  m_PrefabInstance: {fileID: 0}
  m_PrefabAsset: {fileID: 0}
  m_GameObject: {fileID: 2795740511317013203}
  m_LocalRotation: {x: 0, y: 0, z: 0, w: 1}
  m_LocalPosition: {x: 43.54, y: -1.061, z: 12.64}
  m_LocalScale: {x: 0.3, y: 0.3, z: 0.3}
  m_Children:
  - {fileID: 3468274686564861291}
  m_Father: {fileID: 0}
  m_RootOrder: 0
  m_LocalEulerAnglesHint: {x: 0, y: 0, z: 0}
--- !u!195 &2795740511317013202
NavMeshAgent:
  m_ObjectHideFlags: 0
  m_CorrespondingSourceObject: {fileID: 0}
  m_PrefabInstance: {fileID: 0}
  m_PrefabAsset: {fileID: 0}
  m_GameObject: {fileID: 2795740511317013203}
  m_Enabled: 1
  m_AgentTypeID: -334000983
  m_Radius: 1.5
  m_Speed: 1.8
  m_Acceleration: 8
  avoidancePriority: 50
  m_AngularSpeed: 120
  m_StoppingDistance: 3
  m_AutoTraverseOffMeshLink: 1
  m_AutoBraking: 1
  m_AutoRepath: 1
  m_Height: 2
  m_BaseOffset: 1.72
  m_WalkableMask: 4294967295
  m_ObstacleAvoidanceType: 4
--- !u!54 &2795740511317013213
Rigidbody:
  m_ObjectHideFlags: 0
  m_CorrespondingSourceObject: {fileID: 0}
  m_PrefabInstance: {fileID: 0}
  m_PrefabAsset: {fileID: 0}
  m_GameObject: {fileID: 2795740511317013203}
  serializedVersion: 2
  m_Mass: 1
  m_Drag: 0
  m_AngularDrag: 0.05
  m_UseGravity: 0
  m_IsKinematic: 0
  m_Interpolate: 0
  m_Constraints: 0
  m_CollisionDetection: 0
--- !u!82 &3500493522738626038
AudioSource:
  m_ObjectHideFlags: 0
  m_CorrespondingSourceObject: {fileID: 0}
  m_PrefabInstance: {fileID: 0}
  m_PrefabAsset: {fileID: 0}
  m_GameObject: {fileID: 2795740511317013203}
  m_Enabled: 1
  serializedVersion: 4
  OutputAudioMixerGroup: {fileID: 0}
  m_audioClip: {fileID: 8300000, guid: e7ecdc65bedb0cd46a08e62c8f572e0d, type: 3}
  m_PlayOnAwake: 0
  m_Volume: 0.22
  m_Pitch: 1
  Loop: 1
  Mute: 0
  Spatialize: 0
  SpatializePostEffects: 0
  Priority: 104
  DopplerLevel: 1
  MinDistance: 8
  MaxDistance: 18.26
  Pan2D: 0
  rolloffMode: 2
  BypassEffects: 0
  BypassListenerEffects: 0
  BypassReverbZones: 0
  rolloffCustomCurve:
    serializedVersion: 2
    m_Curve:
    - serializedVersion: 3
      time: 0.61538464
      value: 1
      inSlope: -1.6256498
      outSlope: -1.6256498
      tangentMode: 0
      weightedMode: 0
      inWeight: 0
      outWeight: 0
    - serializedVersion: 3
      time: 0.7750856
      value: 0.5020678
      inSlope: -2.9155838
      outSlope: -2.9155838
      tangentMode: 0
      weightedMode: 0
      inWeight: 0.5238357
      outWeight: 0.33333334
    - serializedVersion: 3
      time: 1
      value: 0
      inSlope: -0.61563104
      outSlope: -0.61563104
      tangentMode: 0
      weightedMode: 0
      inWeight: 0
      outWeight: 0
    m_PreInfinity: 2
    m_PostInfinity: 2
    m_RotationOrder: 4
  panLevelCustomCurve:
    serializedVersion: 2
    m_Curve:
    - serializedVersion: 3
      time: 0
      value: 1
      inSlope: 0
      outSlope: 0
      tangentMode: 0
      weightedMode: 0
      inWeight: 0.33333334
      outWeight: 0.33333334
    m_PreInfinity: 2
    m_PostInfinity: 2
    m_RotationOrder: 4
  spreadCustomCurve:
    serializedVersion: 2
    m_Curve:
    - serializedVersion: 3
      time: 0
      value: 0
      inSlope: 0
      outSlope: 0
      tangentMode: 0
      weightedMode: 0
      inWeight: 0.33333334
      outWeight: 0.33333334
    m_PreInfinity: 2
    m_PostInfinity: 2
    m_RotationOrder: 4
  reverbZoneMixCustomCurve:
    serializedVersion: 2
    m_Curve:
    - serializedVersion: 3
      time: 0
      value: 1
      inSlope: 0
      outSlope: 0
      tangentMode: 0
      weightedMode: 0
      inWeight: 0.33333334
      outWeight: 0.33333334
    m_PreInfinity: 2
    m_PostInfinity: 2
    m_RotationOrder: 4
--- !u!1 &4281262842388013009
GameObject:
  m_ObjectHideFlags: 0
  m_CorrespondingSourceObject: {fileID: 0}
  m_PrefabInstance: {fileID: 0}
  m_PrefabAsset: {fileID: 0}
  serializedVersion: 6
  m_Component:
  - component: {fileID: 3468274686564861291}
  - component: {fileID: 4281262842388013010}
  - component: {fileID: 4281262842388013011}
  - component: {fileID: 4281262842388013008}
  - component: {fileID: 937794733}
  - component: {fileID: 691257037045522351}
  - component: {fileID: 1306928438620850722}
  - component: {fileID: 1345234520508605778}
  m_Layer: 7
  m_Name: New_Boat
  m_TagString: Untagged
  m_Icon: {fileID: 0}
  m_NavMeshLayer: 0
  m_StaticEditorFlags: 0
  m_IsActive: 1
--- !u!4 &3468274686564861291
Transform:
  m_ObjectHideFlags: 0
  m_CorrespondingSourceObject: {fileID: 0}
  m_PrefabInstance: {fileID: 0}
  m_PrefabAsset: {fileID: 0}
  m_GameObject: {fileID: 4281262842388013009}
  m_LocalRotation: {x: 0, y: 1, z: 0, w: 0}
  m_LocalPosition: {x: 0, y: 0, z: 0}
  m_LocalScale: {x: 14.285714, y: 14.285714, z: 14.285714}
  m_Children:
  - {fileID: 3750767147960902522}
  - {fileID: 4962219171047688402}
  - {fileID: 4600999896593635414}
  - {fileID: 4571693069056695773}
  m_Father: {fileID: 2795740511317013205}
  m_RootOrder: 0
  m_LocalEulerAnglesHint: {x: 0, y: 180, z: 0}
--- !u!114 &4281262842388013010
MonoBehaviour:
  m_ObjectHideFlags: 0
  m_CorrespondingSourceObject: {fileID: 0}
  m_PrefabInstance: {fileID: 0}
  m_PrefabAsset: {fileID: 0}
  m_GameObject: {fileID: 4281262842388013009}
  m_Enabled: 1
  m_EditorHideFlags: 0
  m_Script: {fileID: 11500000, guid: 0baf77c3f95a6454bafc6b2cdce9d2d8, type: 3}
  m_Name: 
  m_EditorClassIdentifier: 
  points: 3
  healthRestored: 15
  attackRange: 1.6
  gunTurnSpeed: 1
  gunRange: 9.86
  damage: 3
  bulletInterval: 0.58
  gun: {fileID: 4609048478487931519}
  modelCollider: {fileID: 7092782770281134293}
  flash: {fileID: 3868323896529701364, guid: 18f898a85373c37489734c836f548e1f, type: 3}
  atkSound: {fileID: 937794733}
  boatSoundSource: {fileID: 3500493522738626038}
  deathSmoke: {fileID: 9101112944275674083, guid: 5e1a97da710f187408c0d8a03b00606a, type: 3}
  explosion: {fileID: 7864564417494502393, guid: f5a75a34c796cfc4b956a58bb8bed4ac, type: 3}
  deathSmokeTriggerRadius: 2.53
  deathSound: {fileID: 8300000, guid: dfbecfe6de9d1b9449a945764fcf219d, type: 3}
  waterEffects:
  - {fileID: 7894349081032490329}
  - {fileID: 7975425703364125686}
  - {fileID: 1595099166270056534}
  startedSound: 0
--- !u!136 &4281262842388013011
CapsuleCollider:
  m_ObjectHideFlags: 0
  m_CorrespondingSourceObject: {fileID: 0}
  m_PrefabInstance: {fileID: 0}
  m_PrefabAsset: {fileID: 0}
  m_GameObject: {fileID: 4281262842388013009}
  m_Material: {fileID: 0}
  m_IsTrigger: 1
  m_Enabled: 1
  m_Radius: 0.21
  m_Height: 0.82
  m_Direction: 2
  m_Center: {x: 0, y: 0, z: 0}
--- !u!95 &4281262842388013008
Animator:
  serializedVersion: 3
  m_ObjectHideFlags: 0
  m_CorrespondingSourceObject: {fileID: 0}
  m_PrefabInstance: {fileID: 0}
  m_PrefabAsset: {fileID: 0}
  m_GameObject: {fileID: 4281262842388013009}
  m_Enabled: 1
  m_Avatar: {fileID: 0}
  m_Controller: {fileID: 9100000, guid: 10db4bf5e90543e429d00b9bc67cd5cb, type: 2}
  m_CullingMode: 0
  m_UpdateMode: 0
  m_ApplyRootMotion: 0
  m_LinearVelocityBlending: 0
  m_WarningMessage: 
  m_HasTransformHierarchy: 1
  m_AllowConstantClipSamplingOptimization: 1
  m_KeepAnimatorControllerStateOnDisable: 0
--- !u!82 &937794733
AudioSource:
  m_ObjectHideFlags: 0
  m_CorrespondingSourceObject: {fileID: 0}
  m_PrefabInstance: {fileID: 0}
  m_PrefabAsset: {fileID: 0}
  m_GameObject: {fileID: 4281262842388013009}
  m_Enabled: 1
  serializedVersion: 4
  OutputAudioMixerGroup: {fileID: 0}
  m_audioClip: {fileID: 8300000, guid: f2275b8e75c143649b0417ded207f873, type: 3}
  m_PlayOnAwake: 0
  m_Volume: 0.09
  m_Pitch: 1
  Loop: 1
  Mute: 0
  Spatialize: 0
  SpatializePostEffects: 0
  Priority: 128
  DopplerLevel: 1
  MinDistance: 7
  MaxDistance: 11
  Pan2D: 0
  rolloffMode: 2
  BypassEffects: 0
  BypassListenerEffects: 0
  BypassReverbZones: 0
  rolloffCustomCurve:
    serializedVersion: 2
    m_Curve:
    - serializedVersion: 3
      time: 0.53846157
      value: 1
      inSlope: -1.8578882
      outSlope: -1.8578882
      tangentMode: 0
      weightedMode: 0
      inWeight: 0
      outWeight: 0
    - serializedVersion: 3
      time: 1
      value: 0
      inSlope: -0.538677
      outSlope: -0.538677
      tangentMode: 0
      weightedMode: 0
      inWeight: 0
      outWeight: 0
    m_PreInfinity: 2
    m_PostInfinity: 2
    m_RotationOrder: 4
  panLevelCustomCurve:
    serializedVersion: 2
    m_Curve:
    - serializedVersion: 3
      time: 0
      value: 1
      inSlope: 0
      outSlope: 0
      tangentMode: 0
      weightedMode: 0
      inWeight: 0.33333334
      outWeight: 0.33333334
    m_PreInfinity: 2
    m_PostInfinity: 2
    m_RotationOrder: 4
  spreadCustomCurve:
    serializedVersion: 2
    m_Curve:
    - serializedVersion: 3
      time: 0
      value: 0
      inSlope: 0
      outSlope: 0
      tangentMode: 0
      weightedMode: 0
      inWeight: 0.33333334
      outWeight: 0.33333334
    m_PreInfinity: 2
    m_PostInfinity: 2
    m_RotationOrder: 4
  reverbZoneMixCustomCurve:
    serializedVersion: 2
    m_Curve:
    - serializedVersion: 3
      time: 0
      value: 1
      inSlope: 0
      outSlope: 0
      tangentMode: 0
      weightedMode: 0
      inWeight: 0.33333334
      outWeight: 0.33333334
    m_PreInfinity: 2
    m_PostInfinity: 2
    m_RotationOrder: 4
--- !u!136 &691257037045522351
CapsuleCollider:
  m_ObjectHideFlags: 0
  m_CorrespondingSourceObject: {fileID: 0}
  m_PrefabInstance: {fileID: 0}
  m_PrefabAsset: {fileID: 0}
  m_GameObject: {fileID: 4281262842388013009}
  m_Material: {fileID: 0}
  m_IsTrigger: 0
  m_Enabled: 1
  m_Radius: 0.21
  m_Height: 0.82
  m_Direction: 2
  m_Center: {x: 0, y: 0, z: 0}
--- !u!54 &1306928438620850722
Rigidbody:
  m_ObjectHideFlags: 0
  m_CorrespondingSourceObject: {fileID: 0}
  m_PrefabInstance: {fileID: 0}
  m_PrefabAsset: {fileID: 0}
  m_GameObject: {fileID: 4281262842388013009}
  serializedVersion: 2
  m_Mass: 1
  m_Drag: 0
  m_AngularDrag: 0.05
  m_UseGravity: 0
  m_IsKinematic: 1
  m_Interpolate: 0
  m_Constraints: 126
  m_CollisionDetection: 0
--- !u!114 &1345234520508605778
MonoBehaviour:
  m_ObjectHideFlags: 0
  m_CorrespondingSourceObject: {fileID: 0}
  m_PrefabInstance: {fileID: 0}
  m_PrefabAsset: {fileID: 0}
  m_GameObject: {fileID: 4281262842388013009}
  m_Enabled: 0
  m_EditorHideFlags: 0
  m_Script: {fileID: 11500000, guid: 02d61468f8b77ae4b92c344bc9a600fb, type: 3}
  m_Name: 
  m_EditorClassIdentifier: 
  m_allowOffhandGrab: 1
  m_snapPosition: 1
  m_snapOrientation: 0
  m_snapOffset: {fileID: 0}
  m_grabPoints:
  - {fileID: 4281262842388013011}
--- !u!1 &4609048478487931519
GameObject:
  m_ObjectHideFlags: 0
  m_CorrespondingSourceObject: {fileID: 0}
  m_PrefabInstance: {fileID: 0}
  m_PrefabAsset: {fileID: 0}
  serializedVersion: 6
  m_Component:
  - component: {fileID: 3927684189051910324}
  m_Layer: 7
  m_Name: BarrelCorrection
  m_TagString: Untagged
  m_Icon: {fileID: 0}
  m_NavMeshLayer: 0
  m_StaticEditorFlags: 0
  m_IsActive: 1
--- !u!4 &3927684189051910324
Transform:
  m_ObjectHideFlags: 0
  m_CorrespondingSourceObject: {fileID: 0}
  m_PrefabInstance: {fileID: 0}
  m_PrefabAsset: {fileID: 0}
  m_GameObject: {fileID: 4609048478487931519}
  m_LocalRotation: {x: -0, y: 1, z: -0, w: 0}
  m_LocalPosition: {x: 0, y: 2.2847245, z: -7.55043}
  m_LocalScale: {x: 14.285714, y: 14.285714, z: 14.285714}
  m_Children:
  - {fileID: 1011371363073095878}
  - {fileID: 7925703707041652822}
  m_Father: {fileID: 3750767147960902522}
  m_RootOrder: 0
  m_LocalEulerAnglesHint: {x: 0, y: 180, z: 0}
--- !u!1 &4874952888713596248
GameObject:
  m_ObjectHideFlags: 0
  m_CorrespondingSourceObject: {fileID: 0}
  m_PrefabInstance: {fileID: 0}
  m_PrefabAsset: {fileID: 0}
  serializedVersion: 6
  m_Component:
  - component: {fileID: 1011371363073095878}
  - component: {fileID: 9058948829432124981}
  - component: {fileID: 7853809362790530052}
  m_Layer: 7
  m_Name: Turret_Barrel
  m_TagString: Untagged
  m_Icon: {fileID: 0}
  m_NavMeshLayer: 0
  m_StaticEditorFlags: 0
  m_IsActive: 1
--- !u!4 &1011371363073095878
Transform:
  m_ObjectHideFlags: 0
  m_CorrespondingSourceObject: {fileID: 0}
  m_PrefabInstance: {fileID: 0}
  m_PrefabAsset: {fileID: 0}
  m_GameObject: {fileID: 4874952888713596248}
  m_LocalRotation: {x: -0, y: -0.7071068, z: 0.7071068, w: 0}
  m_LocalPosition: {x: 0, y: 0, z: 0}
  m_LocalScale: {x: 1, y: 1, z: 1}
  m_Children: []
  m_Father: {fileID: 3927684189051910324}
  m_RootOrder: 0
  m_LocalEulerAnglesHint: {x: 90, y: 0, z: 0}
--- !u!33 &9058948829432124981
MeshFilter:
  m_ObjectHideFlags: 0
  m_CorrespondingSourceObject: {fileID: 0}
  m_PrefabInstance: {fileID: 0}
  m_PrefabAsset: {fileID: 0}
  m_GameObject: {fileID: 4874952888713596248}
  m_Mesh: {fileID: 4165410753884182843, guid: 784930408c0c4dc42a75cd269029553f, type: 3}
--- !u!23 &7853809362790530052
MeshRenderer:
  m_ObjectHideFlags: 0
  m_CorrespondingSourceObject: {fileID: 0}
  m_PrefabInstance: {fileID: 0}
  m_PrefabAsset: {fileID: 0}
  m_GameObject: {fileID: 4874952888713596248}
  m_Enabled: 1
  m_CastShadows: 1
  m_ReceiveShadows: 1
  m_DynamicOccludee: 1
  m_MotionVectors: 1
  m_LightProbeUsage: 1
  m_ReflectionProbeUsage: 1
  m_RayTracingMode: 2
  m_RayTraceProcedural: 0
  m_RenderingLayerMask: 1
  m_RendererPriority: 0
  m_Materials:
  - {fileID: 2100000, guid: 1741bc49fdaf9544cb9f0b360687af11, type: 2}
  m_StaticBatchInfo:
    firstSubMesh: 0
    subMeshCount: 0
  m_StaticBatchRoot: {fileID: 0}
  m_ProbeAnchor: {fileID: 0}
  m_LightProbeVolumeOverride: {fileID: 0}
  m_ScaleInLightmap: 1
  m_ReceiveGI: 1
  m_PreserveUVs: 0
  m_IgnoreNormalsForChartDetection: 0
  m_ImportantGI: 0
  m_StitchLightmapSeams: 1
  m_SelectedEditorRenderState: 3
  m_MinimumChartSize: 4
  m_AutoUVMaxDistance: 0.5
  m_AutoUVMaxAngle: 89
  m_LightmapParameters: {fileID: 0}
  m_SortingLayerID: 0
  m_SortingLayer: 0
  m_SortingOrder: 0
  m_AdditionalVertexStreams: {fileID: 0}
--- !u!1 &7092782770281134282
GameObject:
  m_ObjectHideFlags: 0
  m_CorrespondingSourceObject: {fileID: 0}
  m_PrefabInstance: {fileID: 0}
  m_PrefabAsset: {fileID: 0}
  serializedVersion: 6
  m_Component:
  - component: {fileID: 6409653650462714857}
  - component: {fileID: 5490143191368815676}
  - component: {fileID: 6332951644476199406}
  - component: {fileID: 7092782770281134293}
  m_Layer: 7
  m_Name: Boat_Body
  m_TagString: Untagged
  m_Icon: {fileID: 0}
  m_NavMeshLayer: 0
  m_StaticEditorFlags: 0
  m_IsActive: 1
--- !u!4 &6409653650462714857
Transform:
  m_ObjectHideFlags: 0
  m_CorrespondingSourceObject: {fileID: 0}
  m_PrefabInstance: {fileID: 0}
  m_PrefabAsset: {fileID: 0}
  m_GameObject: {fileID: 7092782770281134282}
  m_LocalRotation: {x: 0.7071068, y: -0, z: -0, w: 0.7071067}
  m_LocalPosition: {x: 0, y: 1.0900004, z: -3.5800042}
  m_LocalScale: {x: 14.285714, y: 14.285715, z: 14.285715}
  m_Children: []
  m_Father: {fileID: 3750767147960902522}
  m_RootOrder: 2
  m_LocalEulerAnglesHint: {x: 0, y: 0, z: 0}
--- !u!33 &5490143191368815676
MeshFilter:
  m_ObjectHideFlags: 0
  m_CorrespondingSourceObject: {fileID: 0}
  m_PrefabInstance: {fileID: 0}
  m_PrefabAsset: {fileID: 0}
  m_GameObject: {fileID: 7092782770281134282}
  m_Mesh: {fileID: 2326271312205828316, guid: 784930408c0c4dc42a75cd269029553f, type: 3}
--- !u!23 &6332951644476199406
MeshRenderer:
  m_ObjectHideFlags: 0
  m_CorrespondingSourceObject: {fileID: 0}
  m_PrefabInstance: {fileID: 0}
  m_PrefabAsset: {fileID: 0}
  m_GameObject: {fileID: 7092782770281134282}
  m_Enabled: 1
  m_CastShadows: 1
  m_ReceiveShadows: 1
  m_DynamicOccludee: 1
  m_MotionVectors: 1
  m_LightProbeUsage: 1
  m_ReflectionProbeUsage: 1
  m_RayTracingMode: 2
  m_RayTraceProcedural: 0
  m_RenderingLayerMask: 1
  m_RendererPriority: 0
  m_Materials:
  - {fileID: 2100000, guid: 1741bc49fdaf9544cb9f0b360687af11, type: 2}
  m_StaticBatchInfo:
    firstSubMesh: 0
    subMeshCount: 0
  m_StaticBatchRoot: {fileID: 0}
  m_ProbeAnchor: {fileID: 0}
  m_LightProbeVolumeOverride: {fileID: 0}
  m_ScaleInLightmap: 1
  m_ReceiveGI: 1
  m_PreserveUVs: 0
  m_IgnoreNormalsForChartDetection: 0
  m_ImportantGI: 0
  m_StitchLightmapSeams: 1
  m_SelectedEditorRenderState: 3
  m_MinimumChartSize: 4
  m_AutoUVMaxDistance: 0.5
  m_AutoUVMaxAngle: 89
  m_LightmapParameters: {fileID: 0}
  m_SortingLayerID: 0
  m_SortingLayer: 0
  m_SortingOrder: 0
  m_AdditionalVertexStreams: {fileID: 0}
--- !u!136 &7092782770281134293
CapsuleCollider:
  m_ObjectHideFlags: 0
  m_CorrespondingSourceObject: {fileID: 0}
  m_PrefabInstance: {fileID: 0}
  m_PrefabAsset: {fileID: 0}
  m_GameObject: {fileID: 7092782770281134282}
  m_Material: {fileID: 0}
  m_IsTrigger: 0
  m_Enabled: 0
  m_Radius: 0.15423653
  m_Height: 0.82
  m_Direction: 1
  m_Center: {x: -0.000000007450582, y: 0.02, z: 0.00007071345}
--- !u!1 &7670954461780643472
GameObject:
  m_ObjectHideFlags: 0
  m_CorrespondingSourceObject: {fileID: 0}
  m_PrefabInstance: {fileID: 0}
  m_PrefabAsset: {fileID: 0}
  serializedVersion: 6
  m_Component:
  - component: {fileID: 7925703707041652822}
  m_Layer: 7
  m_Name: BarrelTip
  m_TagString: Untagged
  m_Icon: {fileID: 0}
  m_NavMeshLayer: 0
  m_StaticEditorFlags: 0
  m_IsActive: 1
--- !u!4 &7925703707041652822
Transform:
  m_ObjectHideFlags: 0
  m_CorrespondingSourceObject: {fileID: 0}
  m_PrefabInstance: {fileID: 0}
  m_PrefabAsset: {fileID: 0}
  m_GameObject: {fileID: 7670954461780643472}
  m_LocalRotation: {x: 0, y: 0, z: 0, w: 1}
  m_LocalPosition: {x: 0, y: 0, z: 0.0626}
  m_LocalScale: {x: 1, y: 1, z: 1}
  m_Children: []
  m_Father: {fileID: 3927684189051910324}
  m_RootOrder: 1
  m_LocalEulerAnglesHint: {x: 0, y: 0, z: 0}
--- !u!1 &9167304158051172828
GameObject:
  m_ObjectHideFlags: 0
  m_CorrespondingSourceObject: {fileID: 0}
  m_PrefabInstance: {fileID: 0}
  m_PrefabAsset: {fileID: 0}
  serializedVersion: 6
  m_Component:
  - component: {fileID: 6684516434169637303}
  - component: {fileID: 6399459529546019885}
  - component: {fileID: 2013708002387593816}
  m_Layer: 7
  m_Name: Turret_Body
  m_TagString: Untagged
  m_Icon: {fileID: 0}
  m_NavMeshLayer: 0
  m_StaticEditorFlags: 0
  m_IsActive: 1
--- !u!4 &6684516434169637303
Transform:
  m_ObjectHideFlags: 0
  m_CorrespondingSourceObject: {fileID: 0}
  m_PrefabInstance: {fileID: 0}
  m_PrefabAsset: {fileID: 0}
  m_GameObject: {fileID: 9167304158051172828}
  m_LocalRotation: {x: -0, y: -0, z: -0, w: 1}
  m_LocalPosition: {x: 0, y: 2.0356963, z: -7.1265154}
  m_LocalScale: {x: 14.285714, y: 10.417062, z: 14.285714}
  m_Children: []
  m_Father: {fileID: 3750767147960902522}
  m_RootOrder: 1
  m_LocalEulerAnglesHint: {x: 0, y: 0, z: 0}
--- !u!33 &6399459529546019885
MeshFilter:
  m_ObjectHideFlags: 0
  m_CorrespondingSourceObject: {fileID: 0}
  m_PrefabInstance: {fileID: 0}
  m_PrefabAsset: {fileID: 0}
  m_GameObject: {fileID: 9167304158051172828}
  m_Mesh: {fileID: 3995744952493694971, guid: 784930408c0c4dc42a75cd269029553f, type: 3}
--- !u!23 &2013708002387593816
MeshRenderer:
  m_ObjectHideFlags: 0
  m_CorrespondingSourceObject: {fileID: 0}
  m_PrefabInstance: {fileID: 0}
  m_PrefabAsset: {fileID: 0}
  m_GameObject: {fileID: 9167304158051172828}
  m_Enabled: 1
  m_CastShadows: 1
  m_ReceiveShadows: 1
  m_DynamicOccludee: 1
  m_MotionVectors: 1
  m_LightProbeUsage: 1
  m_ReflectionProbeUsage: 1
  m_RayTracingMode: 2
  m_RayTraceProcedural: 0
  m_RenderingLayerMask: 1
  m_RendererPriority: 0
  m_Materials:
  - {fileID: 2100000, guid: 1741bc49fdaf9544cb9f0b360687af11, type: 2}
  m_StaticBatchInfo:
    firstSubMesh: 0
    subMeshCount: 0
  m_StaticBatchRoot: {fileID: 0}
  m_ProbeAnchor: {fileID: 0}
  m_LightProbeVolumeOverride: {fileID: 0}
  m_ScaleInLightmap: 1
  m_ReceiveGI: 1
  m_PreserveUVs: 0
  m_IgnoreNormalsForChartDetection: 0
  m_ImportantGI: 0
  m_StitchLightmapSeams: 1
  m_SelectedEditorRenderState: 3
  m_MinimumChartSize: 4
  m_AutoUVMaxDistance: 0.5
  m_AutoUVMaxAngle: 89
  m_LightmapParameters: {fileID: 0}
  m_SortingLayerID: 0
  m_SortingLayer: 0
  m_SortingOrder: 0
  m_AdditionalVertexStreams: {fileID: 0}
--- !u!1001 &4375564096805374642
PrefabInstance:
  m_ObjectHideFlags: 0
  serializedVersion: 2
  m_Modification:
    m_TransformParent: {fileID: 3468274686564861291}
    m_Modifications:
    - target: {fileID: 272690715672500079, guid: 4e44d0ab887045e45920d1b853e55f0f, type: 3}
      propertyPath: m_RootOrder
      value: 3
      objectReference: {fileID: 0}
    - target: {fileID: 272690715672500079, guid: 4e44d0ab887045e45920d1b853e55f0f, type: 3}
      propertyPath: m_LocalScale.x
      value: 0.3
      objectReference: {fileID: 0}
    - target: {fileID: 272690715672500079, guid: 4e44d0ab887045e45920d1b853e55f0f, type: 3}
      propertyPath: m_LocalScale.y
      value: 0.3
      objectReference: {fileID: 0}
    - target: {fileID: 272690715672500079, guid: 4e44d0ab887045e45920d1b853e55f0f, type: 3}
      propertyPath: m_LocalScale.z
      value: 0.3
      objectReference: {fileID: 0}
    - target: {fileID: 272690715672500079, guid: 4e44d0ab887045e45920d1b853e55f0f, type: 3}
      propertyPath: m_LocalPosition.x
      value: 0.08080024
      objectReference: {fileID: 0}
    - target: {fileID: 272690715672500079, guid: 4e44d0ab887045e45920d1b853e55f0f, type: 3}
      propertyPath: m_LocalPosition.y
      value: -0.01
      objectReference: {fileID: 0}
    - target: {fileID: 272690715672500079, guid: 4e44d0ab887045e45920d1b853e55f0f, type: 3}
      propertyPath: m_LocalPosition.z
      value: 0.28699988
      objectReference: {fileID: 0}
    - target: {fileID: 272690715672500079, guid: 4e44d0ab887045e45920d1b853e55f0f, type: 3}
      propertyPath: m_LocalRotation.w
      value: 0.7064657
      objectReference: {fileID: 0}
    - target: {fileID: 272690715672500079, guid: 4e44d0ab887045e45920d1b853e55f0f, type: 3}
      propertyPath: m_LocalRotation.x
      value: 0.7064657
      objectReference: {fileID: 0}
    - target: {fileID: 272690715672500079, guid: 4e44d0ab887045e45920d1b853e55f0f, type: 3}
      propertyPath: m_LocalRotation.y
      value: 0.030103771
      objectReference: {fileID: 0}
    - target: {fileID: 272690715672500079, guid: 4e44d0ab887045e45920d1b853e55f0f, type: 3}
      propertyPath: m_LocalRotation.z
      value: -0.030103771
      objectReference: {fileID: 0}
    - target: {fileID: 272690715672500079, guid: 4e44d0ab887045e45920d1b853e55f0f, type: 3}
      propertyPath: m_LocalEulerAnglesHint.x
      value: 90
      objectReference: {fileID: 0}
    - target: {fileID: 272690715672500079, guid: 4e44d0ab887045e45920d1b853e55f0f, type: 3}
      propertyPath: m_LocalEulerAnglesHint.y
      value: 4.88
      objectReference: {fileID: 0}
    - target: {fileID: 272690715672500079, guid: 4e44d0ab887045e45920d1b853e55f0f, type: 3}
      propertyPath: m_LocalEulerAnglesHint.z
      value: 0
      objectReference: {fileID: 0}
    - target: {fileID: 7286315229599753909, guid: 4e44d0ab887045e45920d1b853e55f0f, type: 3}
      propertyPath: m_Name
      value: WaterEffect1 (1)
      objectReference: {fileID: 0}
    m_RemovedComponents: []
  m_SourcePrefab: {fileID: 100100000, guid: 4e44d0ab887045e45920d1b853e55f0f, type: 3}
--- !u!4 &4571693069056695773 stripped
Transform:
  m_CorrespondingSourceObject: {fileID: 272690715672500079, guid: 4e44d0ab887045e45920d1b853e55f0f, type: 3}
  m_PrefabInstance: {fileID: 4375564096805374642}
  m_PrefabAsset: {fileID: 0}
--- !u!198 &1595099166270056534 stripped
ParticleSystem:
  m_CorrespondingSourceObject: {fileID: 3070274485128389348, guid: 4e44d0ab887045e45920d1b853e55f0f, type: 3}
  m_PrefabInstance: {fileID: 4375564096805374642}
  m_PrefabAsset: {fileID: 0}
--- !u!1001 &5122161544579948477
PrefabInstance:
  m_ObjectHideFlags: 0
  serializedVersion: 2
  m_Modification:
    m_TransformParent: {fileID: 3468274686564861291}
    m_Modifications:
    - target: {fileID: 272690715672500079, guid: 4e44d0ab887045e45920d1b853e55f0f, type: 3}
      propertyPath: m_RootOrder
      value: 1
      objectReference: {fileID: 0}
    - target: {fileID: 272690715672500079, guid: 4e44d0ab887045e45920d1b853e55f0f, type: 3}
      propertyPath: m_LocalScale.x
      value: 0.3
      objectReference: {fileID: 0}
    - target: {fileID: 272690715672500079, guid: 4e44d0ab887045e45920d1b853e55f0f, type: 3}
      propertyPath: m_LocalScale.y
      value: 0.3
      objectReference: {fileID: 0}
    - target: {fileID: 272690715672500079, guid: 4e44d0ab887045e45920d1b853e55f0f, type: 3}
      propertyPath: m_LocalScale.z
      value: 0.3
      objectReference: {fileID: 0}
    - target: {fileID: 272690715672500079, guid: 4e44d0ab887045e45920d1b853e55f0f, type: 3}
      propertyPath: m_LocalPosition.x
      value: -0.092
      objectReference: {fileID: 0}
    - target: {fileID: 272690715672500079, guid: 4e44d0ab887045e45920d1b853e55f0f, type: 3}
      propertyPath: m_LocalPosition.y
      value: -0.01
      objectReference: {fileID: 0}
    - target: {fileID: 272690715672500079, guid: 4e44d0ab887045e45920d1b853e55f0f, type: 3}
      propertyPath: m_LocalPosition.z
      value: 0.297
      objectReference: {fileID: 0}
    - target: {fileID: 272690715672500079, guid: 4e44d0ab887045e45920d1b853e55f0f, type: 3}
      propertyPath: m_LocalRotation.w
      value: 0.70700645
      objectReference: {fileID: 0}
    - target: {fileID: 272690715672500079, guid: 4e44d0ab887045e45920d1b853e55f0f, type: 3}
      propertyPath: m_LocalRotation.x
      value: 0.70700645
      objectReference: {fileID: 0}
    - target: {fileID: 272690715672500079, guid: 4e44d0ab887045e45920d1b853e55f0f, type: 3}
      propertyPath: m_LocalRotation.y
      value: 0.011908829
      objectReference: {fileID: 0}
    - target: {fileID: 272690715672500079, guid: 4e44d0ab887045e45920d1b853e55f0f, type: 3}
      propertyPath: m_LocalRotation.z
      value: -0.011908829
      objectReference: {fileID: 0}
    - target: {fileID: 272690715672500079, guid: 4e44d0ab887045e45920d1b853e55f0f, type: 3}
      propertyPath: m_LocalEulerAnglesHint.x
      value: 90
      objectReference: {fileID: 0}
    - target: {fileID: 272690715672500079, guid: 4e44d0ab887045e45920d1b853e55f0f, type: 3}
      propertyPath: m_LocalEulerAnglesHint.y
      value: 1.93
      objectReference: {fileID: 0}
    - target: {fileID: 272690715672500079, guid: 4e44d0ab887045e45920d1b853e55f0f, type: 3}
      propertyPath: m_LocalEulerAnglesHint.z
      value: 0
      objectReference: {fileID: 0}
    - target: {fileID: 7286315229599753909, guid: 4e44d0ab887045e45920d1b853e55f0f, type: 3}
      propertyPath: m_Name
      value: WaterEffect1
      objectReference: {fileID: 0}
    m_RemovedComponents: []
  m_SourcePrefab: {fileID: 100100000, guid: 4e44d0ab887045e45920d1b853e55f0f, type: 3}
--- !u!4 &4962219171047688402 stripped
Transform:
  m_CorrespondingSourceObject: {fileID: 272690715672500079, guid: 4e44d0ab887045e45920d1b853e55f0f, type: 3}
  m_PrefabInstance: {fileID: 5122161544579948477}
  m_PrefabAsset: {fileID: 0}
--- !u!198 &7894349081032490329 stripped
ParticleSystem:
  m_CorrespondingSourceObject: {fileID: 3070274485128389348, guid: 4e44d0ab887045e45920d1b853e55f0f, type: 3}
  m_PrefabInstance: {fileID: 5122161544579948477}
  m_PrefabAsset: {fileID: 0}
--- !u!1001 &6299343287715145413
PrefabInstance:
  m_ObjectHideFlags: 0
  serializedVersion: 2
  m_Modification:
    m_TransformParent: {fileID: 3468274686564861291}
    m_Modifications:
    - target: {fileID: 1673222818692934438, guid: 64ffa1bec3c90054ea2f7b56e25fec35, type: 3}
      propertyPath: m_Name
      value: WaterEffect2
      objectReference: {fileID: 0}
    - target: {fileID: 7544033360840113811, guid: 64ffa1bec3c90054ea2f7b56e25fec35, type: 3}
      propertyPath: m_RootOrder
      value: 2
      objectReference: {fileID: 0}
    - target: {fileID: 7544033360840113811, guid: 64ffa1bec3c90054ea2f7b56e25fec35, type: 3}
      propertyPath: m_LocalScale.x
      value: 0.3
      objectReference: {fileID: 0}
    - target: {fileID: 7544033360840113811, guid: 64ffa1bec3c90054ea2f7b56e25fec35, type: 3}
      propertyPath: m_LocalScale.y
      value: 0.3
      objectReference: {fileID: 0}
    - target: {fileID: 7544033360840113811, guid: 64ffa1bec3c90054ea2f7b56e25fec35, type: 3}
      propertyPath: m_LocalScale.z
      value: 0.3
      objectReference: {fileID: 0}
    - target: {fileID: 7544033360840113811, guid: 64ffa1bec3c90054ea2f7b56e25fec35, type: 3}
      propertyPath: m_LocalPosition.x
      value: -0.01609961
      objectReference: {fileID: 0}
    - target: {fileID: 7544033360840113811, guid: 64ffa1bec3c90054ea2f7b56e25fec35, type: 3}
      propertyPath: m_LocalPosition.y
      value: -0.01
      objectReference: {fileID: 0}
    - target: {fileID: 7544033360840113811, guid: 64ffa1bec3c90054ea2f7b56e25fec35, type: 3}
      propertyPath: m_LocalPosition.z
      value: 0.28869995
      objectReference: {fileID: 0}
    - target: {fileID: 7544033360840113811, guid: 64ffa1bec3c90054ea2f7b56e25fec35, type: 3}
      propertyPath: m_LocalRotation.w
      value: 0.70662284
      objectReference: {fileID: 0}
    - target: {fileID: 7544033360840113811, guid: 64ffa1bec3c90054ea2f7b56e25fec35, type: 3}
      propertyPath: m_LocalRotation.x
      value: 0.70662284
      objectReference: {fileID: 0}
    - target: {fileID: 7544033360840113811, guid: 64ffa1bec3c90054ea2f7b56e25fec35, type: 3}
      propertyPath: m_LocalRotation.y
      value: 0.026157698
      objectReference: {fileID: 0}
    - target: {fileID: 7544033360840113811, guid: 64ffa1bec3c90054ea2f7b56e25fec35, type: 3}
      propertyPath: m_LocalRotation.z
      value: -0.026157698
      objectReference: {fileID: 0}
    - target: {fileID: 7544033360840113811, guid: 64ffa1bec3c90054ea2f7b56e25fec35, type: 3}
      propertyPath: m_LocalEulerAnglesHint.x
      value: 90
      objectReference: {fileID: 0}
    - target: {fileID: 7544033360840113811, guid: 64ffa1bec3c90054ea2f7b56e25fec35, type: 3}
      propertyPath: m_LocalEulerAnglesHint.y
      value: 4.24
      objectReference: {fileID: 0}
    - target: {fileID: 7544033360840113811, guid: 64ffa1bec3c90054ea2f7b56e25fec35, type: 3}
      propertyPath: m_LocalEulerAnglesHint.z
      value: 0
      objectReference: {fileID: 0}
    m_RemovedComponents: []
  m_SourcePrefab: {fileID: 100100000, guid: 64ffa1bec3c90054ea2f7b56e25fec35, type: 3}
--- !u!4 &4600999896593635414 stripped
Transform:
  m_CorrespondingSourceObject: {fileID: 7544033360840113811, guid: 64ffa1bec3c90054ea2f7b56e25fec35, type: 3}
  m_PrefabInstance: {fileID: 6299343287715145413}
  m_PrefabAsset: {fileID: 0}
--- !u!198 &7975425703364125686 stripped
ParticleSystem:
  m_CorrespondingSourceObject: {fileID: 4162913972393690419, guid: 64ffa1bec3c90054ea2f7b56e25fec35, type: 3}
  m_PrefabInstance: {fileID: 6299343287715145413}
  m_PrefabAsset: {fileID: 0}
