%YAML 1.1
%TAG !u! tag:unity3d.com,2011:
--- !u!1045 &1
EditorBuildSettings:
  m_ObjectHideFlags: 0
  serializedVersion: 2
  m_Scenes:
  - enabled: 0
    path: Assets/Scenes/TestScenes/Menu/ZaneCamp_Menu.unity
    guid: 91dd1b002771d3d47b2b5057017bb5f9
  - enabled: 0
    path: Assets/Scenes/TestScenes/Zane_Test.unity
    guid: 20d7710407da63b47a865c8b1ebac976
  - enabled: 0
    path: Assets/Scenes/TestScenes/Logan'sScenes/LogansPrototypeScene.unity
    guid: 31f841daa8389d246ae29e15d09e5d19
  - enabled: 0
    path: Assets/Scenes/TestScenes/Menu/Credits_Scene.unity
    guid: 331e4643fbfcfdb4786db1729bebc093
  - enabled: 1
    path: Assets/Scenes/TestScenes/Logan'sScenes/LogansTutorial.unity
    guid: 7f1163adac3c0d64d8ae6cddf43def06
  - enabled: 1
    path: Assets/Scenes/TestScenes/RL_LevelDesignTest 1.unity
    guid: 16795a94486a73844a83152bb150185d
  - enabled: 1
    path: Assets/Scenes/BuildScenes/MilitaryLevel.unity
    guid: 1ce3e983785a7f24da8cffa02854257e
  - enabled: 1
    path: Assets/Scenes/BuildScenes/SandboxLevel.unity
    guid: 560e3289bd87882458e5a5327a778b27
  m_configObjects:
    Unity.XR.Oculus.Settings: {fileID: 11400000, guid: b629370a1d733d94a916d08d71eeb7b6, type: 2}
    com.unity.input.settings: {fileID: 11400000, guid: 729dad2cfe5dd4e41ace8df3343b9364, type: 2}
    com.unity.xr.management.loader_settings: {fileID: 11400000, guid: 280ce81d04a83f842be82b586862a134, type: 2}
    com.unity.xr.openxr.settings4: {fileID: 11400000, guid: eac71633e84467d42b0ad14bee297288, type: 2}
